10000 1000000	
10001 1111001
10010 0100100
10011 0110000
10100 0011001
10101 0010010
10110 0000010
10111 1111000
11000 0000000
11001 0010000
11010 0001000
11011 0000011
11100 1000110
11101 0100001
11110 0000110
11111 0001110
00000 1111111
00001 1111111
00010 1111111
00011 1111111
00100 1111111
00101 1111111
00110 1111111
00111 1111111
01000 1111111
01001 1111111
01010 1111111
01011 1111111
01100 1111111
01101 1111111
01110 1111111
01111 1111111
