c212 160 1 52
c83 49 1 34
c150 32 4 22
c197 151 1 46
c254 234 1 20
c119 116 1 3
c193 84 2 25
c215 79 2 57
c49 19 2 11
c136 108 1 28
c208 228 0 208
c29 46 0 29
c129 163 0 129
c37 224 0 37
c165 215 0 165
c133 213 0 133
c46 249 0 46
c252 254 0 252
c90 99 0 90
c68 87 0 68
c190 95 2 0
c198 198 1 0
c149 149 1 0
c248 62 4 0
c243 27 9 0
c255 3 85 0
c159 159 1 0
c163 163 1 0
c244 122 2 0
c210 70 3 0
c8 8 1 0
c106 106 1 0
c71 71 1 0
c52 52 1 0
c252 252 1 0
c91 91 1 0
c28 28 1 0
c208 208 1 0
c147 147 1 0
c57 57 1 0
c0 41 0 0
z27 0
z 0 0
